ISDIG_A5/GateDemo/simulation/qsim/GateDemo.msim.vcd
$comment
	File created using the following command:
		vcd file GateDemo.msim.vcd -direction
$end
$date
	Fri Nov 06 19:06:07 2020
$end
$version
	ModelSim Version 10.5b
$end
$timescale
	1ps
$end

$scope module GateDemo_vlg_vec_tst $end
$var reg 1 ! inPort0 $end
$var reg 1 " inPort1 $end
$var wire 1 # outPort $end

$scope module i1 $end
$var wire 1 $ gnd $end
$var wire 1 % vcc $end
$var wire 1 & unknown $end
$var tri1 1 ' devclrn $end
$var tri1 1 ( devpor $end
$var tri1 1 ) devoe $end
$var wire 1 * outPort~output_o $end
$var wire 1 + inPort1~input_o $end
$var wire 1 , inPort0~input_o $end
$var wire 1 - inst~combout $end
$upscope $end
$upscope $end
$enddefinitions $end
#0
$dumpvars
0!
0"
1#
0$
1%
x&
1'
1(
1)
1*
0+
0,
0-
$end
#40000
1!
1,
#140000
1"
1+
1-
0*
0#
#230000
0!
0,
0-
1*
1#
#370000
1!
1,
1-
0*
0#
#420000
0"
0+
0-
1*
1#
#630000
0!
0,
#710000
1"
1+
#910000
0"
0+
#950000
1!
1,
#990000
0!
0,
