ISDIG_A7/MuxDemo/simulation/qsim/MuxDemo.msim.vcd
$comment
	File created using the following command:
		vcd file MuxDemo.msim.vcd -direction
$end
$date
	Fri Nov 20 21:25:11 2020
$end
$version
	ModelSim Version 10.5b
$end
$timescale
	1ps
$end

$scope module MuxDemo2_vlg_vec_tst $end
$var reg 1 ! I0 $end
$var reg 1 " I1 $end
$var reg 1 # I2 $end
$var reg 1 $ I3 $end
$var reg 1 % I4 $end
$var reg 1 & I5 $end
$var reg 1 ' I6 $end
$var reg 1 ( I7 $end
$var reg 1 ) I8 $end
$var reg 1 * I9 $end
$var reg 1 + I10 $end
$var reg 1 , I11 $end
$var reg 1 - I12 $end
$var reg 1 . I13 $end
$var reg 1 / I14 $end
$var reg 1 0 I15 $end
$var reg 1 1 S0 $end
$var reg 1 2 S1 $end
$var reg 1 3 S2 $end
$var reg 1 4 S3 $end
$var wire 1 5 y $end

$scope module i1 $end
$var wire 1 6 gnd $end
$var wire 1 7 vcc $end
$var wire 1 8 unknown $end
$var tri1 1 9 devclrn $end
$var tri1 1 : devpor $end
$var tri1 1 ; devoe $end
$var wire 1 < y~output_o $end
$var wire 1 = I10~input_o $end
$var wire 1 > S1~input_o $end
$var wire 1 ? I9~input_o $end
$var wire 1 @ S0~input_o $end
$var wire 1 A I8~input_o $end
$var wire 1 B inst|inst14|inst2~0_combout $end
$var wire 1 C I11~input_o $end
$var wire 1 D inst|inst14|inst2~1_combout $end
$var wire 1 E S3~input_o $end
$var wire 1 F I5~input_o $end
$var wire 1 G I6~input_o $end
$var wire 1 H I4~input_o $end
$var wire 1 I inst|inst14|inst2~2_combout $end
$var wire 1 J I7~input_o $end
$var wire 1 K inst|inst14|inst2~3_combout $end
$var wire 1 L S2~input_o $end
$var wire 1 M I2~input_o $end
$var wire 1 N I1~input_o $end
$var wire 1 O I0~input_o $end
$var wire 1 P inst|inst14|inst2~4_combout $end
$var wire 1 Q I3~input_o $end
$var wire 1 R inst|inst14|inst2~5_combout $end
$var wire 1 S inst|inst14|inst2~6_combout $end
$var wire 1 T I13~input_o $end
$var wire 1 U I14~input_o $end
$var wire 1 V I12~input_o $end
$var wire 1 W inst|inst14|inst2~7_combout $end
$var wire 1 X I15~input_o $end
$var wire 1 Y inst|inst14|inst2~8_combout $end
$var wire 1 Z inst|inst14|inst2~9_combout $end
$upscope $end
$upscope $end
$enddefinitions $end
#0
$dumpvars
0!
1"
1#
1$
1%
1&
1'
0(
1)
1*
1+
1,
1-
1.
1/
10
01
02
03
04
05
06
17
x8
19
1:
1;
0<
1=
0>
1?
0@
1A
1B
1C
1D
0E
1F
1G
1H
1I
0J
1K
0L
1M
1N
0O
0P
1Q
0R
0S
1T
1U
1V
1W
1X
1Y
0Z
$end
#40000
11
12
13
1@
1>
1L
1P
0K
1R
1S
0S
1Z
1<
15
0Z
0<
05
#170000
01
02
03
0@
0>
0L
0P
1K
1S
0R
1Z
1<
0S
15
0Z
0<
05
#210000
12
1>
1R
0B
1S
1Z
1<
15
#290000
02
0>
0R
0D
1B
0S
1D
0Z
0<
05
#340000
12
1>
1R
0B
1S
1Z
1<
15
#420000
02
0>
0R
0D
1B
0S
1D
0Z
0<
05
#480000
11
13
12
1@
1L
1>
1P
0K
1S
1R
0S
1Z
1<
15
0Z
0<
05
#550000
01
03
02
0@
0L
0>
0P
1K
1S
0R
1Z
1<
0S
15
0Z
0<
05
#610000
11
1@
0W
1P
0K
0I
1R
1K
1S
1Z
1<
15
#730000
01
0@
0Y
1W
0P
0K
1I
1Y
0R
1K
0S
0Z
0<
05
#770000
13
1L
1S
1Z
1<
15
#880000
03
0L
0S
0Z
0<
05
